^C:\USERS\MIHAI\SOURCE\REPOS\QTCLIENTV2\SERVER_ONEDRIVE\X64\DEBUG\DATABASE.OBJ|C:\USERS\MIHAI\SOURCE\REPOS\QTCLIENTV2\SERVER_ONEDRIVE\X64\DEBUG\SERVER.OBJ|C:\USERS\MIHAI\SOURCE\REPOS\QTCLIENTV2\SERVER_ONEDRIVE\X64\DEBUG\SQLITE3.OBJ|C:\USERS\MIHAI\SOURCE\REPOS\QTCLIENTV2\SERVER_ONEDRIVE\X64\DEBUG\TCPSOCKET.OBJ|C:\USERS\MIHAI\SOURCE\REPOS\QTCLIENTV2\SERVER_ONEDRIVE\X64\DEBUG\UTILS.OBJ
/OUT:"C:\USERS\MIHAI\SOURCE\REPOS\QTCLIENTV2\X64\DEBUG\SERVER_ONEDRIVE.EXE" /INCREMENTAL /ILK:"X64\DEBUG\SERVER_ONEDRIVE.ILK" /NOLOGO /LIBPATH:C:\USERS\MIHAI\SOURCE\REPOS\QTCLIENTV2\X64\DEBUG\ KERNEL32.LIB USER32.LIB GDI32.LIB WINSPOOL.LIB COMDLG32.LIB ADVAPI32.LIB SHELL32.LIB OLE32.LIB OLEAUT32.LIB UUID.LIB ODBC32.LIB ODBCCP32.LIB /MANIFEST /MANIFESTUAC:"level='asInvoker' uiAccess='false'" /manifest:embed /DEBUG /PDB:"C:\USERS\MIHAI\SOURCE\REPOS\QTCLIENTV2\X64\DEBUG\SERVER_ONEDRIVE.PDB" /SUBSYSTEM:CONSOLE /TLBID:1 /DYNAMICBASE /NXCOMPAT /IMPLIB:"C:\USERS\MIHAI\SOURCE\REPOS\QTCLIENTV2\X64\DEBUG\SERVER_ONEDRIVE.LIB" /MACHINE:X64 X64\DEBUG\DATABASE.OBJ
X64\DEBUG\SERVER.OBJ
X64\DEBUG\SQLITE3.OBJ
X64\DEBUG\TCPSOCKET.OBJ
X64\DEBUG\UTILS.OBJ
